#,Gene,Phenotype,Phenotype ID,PMID,MER phenotype,MER Phenotype ID,Manual verification,Notes
1,ANKRD11,congenital heart defects ,HP_0001627,30992551,proximal,- ,Negative,no term exactly the same
2,ANKRD11,congenital heart defects ,HP_0001970,30992551,Maternal diabetes,HP_0009800,Negative,
3,ANKRD11,congenital heart defects ,HP_0001627,30877071,brachydactyly,HP_0001156,Positive,
4,ANKRD11,congenital heart defects ,HP_0001627,30877071,mild ,HP_0012825,Positive,
5,ANKRD11,congenital heart defects ,HP_0001627,30877071,developmental delay,-,Positive,no term exactly the same
6,ANKRD11,congenital heart defects ,HP_0001627,30877071,short stature,HP_0004322,Positive,
7,FAN1,interstitial nephritis,HP_0001970,30358836,onset,HP_0003674,Positive,
8,FAN1,interstitial nephritis,HP_0001970,30358836,neurodegenerative disease,HP_0002180,Positive,
9,FAN1,interstitial nephritis,HP_0001970,30277423,nephritis,HP_0000123,Positive,
10,FAN1,interstitial nephritis,HP_0001970,30277424,tumor ,HP_0002664,Negative,term is neoplasm but equivalent string is tumor
11,FAN1,interstitial nephritis,HP_0001970,30277424,neoplasia,HP_0002664,Negative,term is neoplasm equivalent string is neoplasia
12,FAN1,interstitial nephritis,HP_0001970,30277424,Nephropathy,HP_0000112,Negative,
13,FAN1,interstitial nephritis,HP_0001970,30277424,interstitial nephritis,HP_0001970,Positive,no term exactly the same – used Tubulointerstitial nephritis
14,KCNQ1,cardiac arrhythmia,HP_0011675,30988816,cancer,HP_0002664,Negative,term is neoplasm equivalent string is cancer
15,KCNQ1,cardiac arrhythmia,HP_0011675,30988816,gastric cancer,HP_0012126,Negative,
16,DTNA,left ventricular noncompaction ,HP_0030682,30980206,left,HP_0012835,Positive,
17,DTNA,left ventricular noncompaction ,HP_0030682,30980206,cardiomyopathy,HP_0001638,Positive,
18,DTNA,left ventricular noncompaction ,HP_0030682,30980206,frequency,HP_0040279,Positive,
19,DTNA,left ventricular noncompaction ,HP_0030682,30980206,tachycardia,HP_0001649,Positive,
20,DTNA,left ventricular noncompaction ,HP_0030682,30980206,supraventricular tachycardia,HP_0004755,Positive,
21,DTNA,left ventricular noncompaction ,HP_0030682,30980206,ventricular tachycardia,HP_0004756,Positive,
22,DTNA,left ventricular noncompaction ,HP_0030682,30980206,thromboembolic events,HP_0001907,Positive,
23,DTNA,left ventricular noncompaction ,HP_0030682,30980206,left ventricular non-compaction cardiomyopathy,HP_0011664,Positive,
24, DNAJC13,parkinsonism,HP_0001300,30788857,parkinsonism ,HP_0001300,Positive,
25, DNAJC13,parkinsonism,HP_0001300,30788857,onset,HP_0003674,Negative,
26, DNAJC13,parkinsonism,HP_0001300,30788857,inheritance,- ,Negative,
27, DNAJC13,parkinsonism,HP_0001300,30788857,heterogeneous,HP_0001425,Negative,
28, DNAJC13,parkinsonism,HP_0001300,30788857,Movement Disorder,HP_0100022,Negative,
29, DNAJC13,parkinsonism,HP_0001300,30598256,sporadic,HP_0003745,Negative,
30,RET,hyperparathyroidism ,HP_0000843 ,31028215,cancer,HP_0002664,Negative,
31,TMEM43,premature ventricular contractions ,HP_0006682,29982135,localized ,HP_0012838,Negative,
32,TMEM43,premature ventricular contractions ,HP_0006682,29980933,right,HP_0012834,Negative,
33,TMEM43,premature ventricular contractions ,HP_0006682,29980933,sudden cardiac death,HP_0001645,Positive,
34,MED13L, facial dysmorphism ,HP_0001999,30905399,recurrent,-,Negative,no term exactly the same
35,MED13L, facial dysmorphism ,HP_0001999,30905399,hypotonia,HP_0001290,Negative,no term exactly the same Generalized Hypotonia used
36,MED13L, facial dysmorphism ,HP_0001999,30905399,mild,HP_0012825,Negative,
37,MED13L, facial dysmorphism ,HP_0001999,30905399,moderate,- ,Negative,no term exactly the same
38,MED13L, facial dysmorphism ,HP_0001999,30905399,seizures,HP_0001250,Negative,
39,MED13L, facial dysmorphism ,HP_0001999,30905399,intellectual disability ,HP_0001249,Positive,
40,MED13L, facial dysmorphism ,HP_0001999,30905399,behavioral disorders,HP_0000708,Positive,
41,MED13L, facial dysmorphism ,HP_0001999,30905399,facial dysmorphism,HP_0001999,Negative,Term name is Abnormal facial shape
42,MED13L, facial dysmorphism ,HP_0001999,29959045,moderate,- ,Positive,
43,MED13L, facial dysmorphism ,HP_0001999,29959045,macroglossia,HP_0000158,Positive,
44,MED13L, facial dysmorphism ,HP_0001999,29959045,macrostomia,HP_0000154,Positive,Term name is wide mouth
45,MED13L, facial dysmorphism ,HP_0001999,29959045,autism,HP_0000717,Positive,
46,MED13L, facial dysmorphism ,HP_0001999,29959045,intellectual disability,HP_0001249,Positive,
47,MED13L, facial dysmorphism ,HP_0001999,29959045,speech impairment,HP_0002167,Positive,no exact term - neurological speech impairment was used
48,MED13L, facial dysmorphism ,HP_0001999,29959045,motor delay,HP_0001270,Positive,
49,MED13L, facial dysmorphism ,HP_0001999,29959045,open mouth,HP_0000194,Positive,
50,MED13L, facial dysmorphism ,HP_0001999,29959045,developmental delay,HP_0012758,Positive,no exact term Neurodevelopmental delay was used
51,MED13L, facial dysmorphism ,HP_0001999,29959045,dysmorphic facial features,HP_0001999,Positive,Term name is Abnormal facial shape
52,MED13L, facial dysmorphism ,HP_0001999,29959045,open mouth appearance,HP_0000194,Positive,term name is open mouth
53,MED13L, facial dysmorphism ,HP_0001999,29959045,congenital heart defect,HP_0001627,Negative,term name is abnormal heart morphology
54,MED13L, facial dysmorphism ,HP_0001999,29959045,bulbous nasal tip,HP_0000414,Positive,term name is bulbous nose
55,MED13L, facial dysmorphism ,HP_0001999,29959045,open mouth appearance,HP_0000194,Positive,term name is open mouth
56,INSL3,cryptorchidism,HP_0000028,30925461,localised ,HP_0012838,Negative,
57,INSL3,cryptorchidism,HP_0000028,30914738,lymphoma,HP_0002665,Negative,
58,INSL3,cryptorchidism,HP_0000028,30914738,tumour,HP_0002664,Positive,term name is neoplasm 
59,INSL3,cryptorchidism,HP_0000028,30914738,cancer,HP_0002664,Positive,term name is neoplasm 
60,TTC7A,hypogammaglobulinemia,HP_0004313,30553809,onset,HP_0003674,Negative,
61,TTC7A,hypogammaglobulinemia,HP_0004313,30553809,enterocolitis,HP_0004387,Positive,
62,TTC7A,hypogammaglobulinemia,HP_0004313,30553809,immunodeficiency,HP_0002721,Positive,
63,TTC7A,hypogammaglobulinemia,HP_0004313,30553809,combined immunodeficiency,HP_0005387,Positive,
64,TTC7A,hypogammaglobulinemia,HP_0004313,30553809,inflammatory bowel disease,HP_00020372,Positive,term name is Inflammation of the large intestine
65,GRXCR1,hearing loss,HP_0000365,30380418,deafness,HP_0000365,Positive,term name is Hearing impairment
66,GRXCR1,hearing loss,HP_0000365,30380418,areflexia,HP_0001284,Positive,
67,GRXCR1,hearing loss,HP_0000365,30380418,vestibular areflexia,HP_0008568,Positive,
68,GRXCR1,hearing loss,HP_0000365,30380418,sensorineural deafness,HP_0000407,Positive,term name is Sensorineural hearing impairment
69,GRXCR1,hearing loss,HP_0000365,30157177,localized,HP_0012838,Negative,
70,GRXCR1,hearing loss,HP_0000365,30157177,progressive,HP_0003676,Negative,
71,GRXCR1,hearing loss,HP_0000365,30157177,hearing loss,HP_0000365,Positive,term name is Hearing impairment
72,GRXCR1,hearing loss,HP_0000365,30157177,vestibular dysfunction,HP_0001751,Negative,
73,GRXCR1,hearing loss,HP_0000365,30157177,progressive hearing loss,HP_0001730,Positive,term name is progressive hearing impairment
